19 Numbering Corners | Visualising WRC Telemetry Data With R
…
xx = cornerer(route_convexity)

yy = xx %>% group_by(streak_id) %>%
   mutate(invisible_ci = min(invisible_ci), kmsection=min(kmsection)) %>%
  mutate(x=head(Midpoint_X,1), y=head(Midpoint_Y,1)) %>%
  filter(row_number()==n())
  #mutate(txt = ifelse(invisible_ci>9 & turn!="S",
  #                    paste("slight ",turn, as.character(10*streak)),
  #                    ifelse(turn=="S", as.character(10*streak), "")),
  #       txt=ifelse(paste(txt, paste0(invisible_ci, streak, turn), sep=", "))
  #       )
#
xx

## # A tibble: 1,806 × 25
##      FID RID            MidMeas WindowSize RawConvexity ConvexityIndex Sinuosity
##    <int> <chr>            <dbl>      <dbl>        <dbl>          <dbl>     <dbl>
##  1     1 SS7/11 Kakari…      10         20        0.043          0.004     0.5  
##  2     1 SS7/11 Kakari…      20         20        0.226          0.023     0.5  
##  3     1 SS7/11 Kakari…      30         20        0.415          0.041     0.501
##  4     1 SS7/11 Kakari…      40         20        0.276          0.028     0.5  
##  5     1 SS7/11 Kakari…      50         20        0.124          0.012     0.5  
##  6     1 SS7/11 Kakari…      60         20       -0.015         -0.002     0.5  
##  7     1 SS7/11 Kakari…      70         20       -0.191         -0.019     0.5  
##  8     1 SS7/11 Kakari…      80         20       -0.405         -0.04      0.501
##  9     1 SS7/11 Kakari…      90         20       -1.17          -0.117     0.506
## 10     1 SS7/11 Kakari…     100         20       -1.94          -0.194     0.512
## # … with 1,796 more rows, and 18 more variables: Midpoint_X <dbl>,
## #   Midpoint_Y <dbl>, dist <dbl>, cum_dist <dbl>, radius <dbl>,
## #   invisible_ci <ord>, invisible_sp <int>, acc_sp <dbl>, segment_sp <dbl>,
## #   invisible_time <dbl>, acc_time <dbl>, kmsection <dbl>, straightish <lgl>,
## #   dirChange <lgl>, turn <chr>, s2 <lgl>, streak_id <int>, streak <int>

xx %>% filter(kmsection==2) %>% select(straightish, dirChange, turn, invisible_ci)

## # A tibble: 100 × 4
##    straightish dirChange turn  invisible_ci
##    <lgl>       <lgl>     <chr> <ord>       
##  1 TRUE        TRUE      S     11          
##  2 TRUE        TRUE      S     11          
##  3 TRUE        TRUE      S     11          
##  4 TRUE        TRUE      S     11          
##  5 TRUE        FALSE     S     11          
##  6 FALSE       FALSE     R     11          
##  7 FALSE       FALSE     L     11          
##  8 FALSE       FALSE     L     11          
##  9 FALSE       FALSE     L     11          
## 10 FALSE       FALSE     L     11          
## # … with 90 more rows
…
