5 Plotting Locations a Certain Time Into the Stage | Visualising WRC Telemetry Data
…
We can then use the rounded first time as a basis for a running stage time estimate:

# Get stage time as a time object...
route_telem_utm$newdelta_t = route_telem_utm$utc - first_time_rounded
# And in seconds
route_telem_utm$newdelta_s = as.double(route_telem_utm$newdelta_t)

route_telem_utm

## Simple feature collection with 83 features and 25 fields
## geometry type:  POINT
## dimension:      XY
## bbox:           xmin: 400117.6 ymin: 6847342 xmax: 403194.8 ymax: 6856758
## CRS:            +proj=utm +zone=35 +datum=WGS84 +units=m +no_defs
## # A tibble: 83 x 26
##        X  accx  accy altitude   brk driverid  gear heading   kms  name   rpm
##  * <int> <int> <int>    <int> <int> <lgl>    <int>   <int> <dbl> <int> <int>
##  1  1870     0     0        0     0 NA           0     144   0.6    33     0
##  2  1869     0     0        0     0 NA           0     150   0.7    33     0
##  3  1868     0     0        0     0 NA           0     172   0.8    33     0
##  4  1867     0     0        0     0 NA           0     220   0.9    33     0
##  5  1866     0     0        0     0 NA           0     210   1      33     0
##  6  1865     0     0        0     0 NA           0     208   1.1    33     0
##  7  1864     0     0        0     0 NA           0     194   1.3    33     0
##  8  1863     0     0        0     0 NA           0     220   1.5    33     0
##  9  1862     0     0        0     0 NA           0     176   1.6    33     0
## 10  1861     0     0        0     0 NA           0     172   1.7    33     0
## # … with 73 more rows, and 15 more variables: speed <int>, status <chr>,
## #   throttle <int>, track <lgl>, utx <dbl>, X_rally_stageid <chr>,
## #   X_carentryid <chr>, X_telemetryID <chr>, X_name <chr>, delta <dbl>,
## #   utc <dttm>, geometry <POINT [m]>, dist <dbl>, newdelta_t <drtn>,
## #   newdelta_s <dbl>
…
